7 Introduction to the tidyverse | Troubleshooting
…
The utility of the pivot_longer() function will become more evident during visualization.

experiment %>%
  filter(low.birthweight == TRUE) %>%
  select(smoker, `miR-16`, `miR-21`, `miR-146a`, `miR-182`) %>%
  pivot_longer(cols = c(`miR-16`, `miR-21`, `miR-146a`, `miR-182`),
               names_to = "gene",
               values_to = "expression") 

## # A tibble: 24 × 3
##    smoker gene     expression
##    <lgl>  <chr>         <int>
##  1 TRUE   miR-16           60
##  2 TRUE   miR-21           48
##  3 TRUE   miR-146a         89
##  4 TRUE   miR-182          65
##  5 TRUE   miR-16           70
##  6 TRUE   miR-21           51
##  7 TRUE   miR-146a         84
##  8 TRUE   miR-182          48
##  9 TRUE   miR-16           61
## 10 TRUE   miR-21           51
## # … with 14 more rows
